{
  "seq_tempo_ms": 180722,
  "seq_bpm": 83,
  "arp_speed": 0,
  "arp_length": 5,
  "arp_volume_fade": 60,
  "arp_style": 2,
  "seq_chord_vel": 40,
  "seq_chord_dexed_inst": 0,
  "seq_transpose": 0,
  "chord_key_ammount": 4,
  "seq_oct_shift": -1,
  "seq_element_shift": 3,
  "COLOR_SYSTEXT": 65535,
  "COLOR_SYSTEXT_ACCENT": 5530,
  "COLOR_BACKGROUND": 0,
  "COLOR_INSTR": 31677,
  "COLOR_CHORDS": 58106,
  "COLOR_ARP": 64640,
  "COLOR_DRUMS": 65103,
  "COLOR_PITCHSMP": 5530,
  "track_type": [
    0,
    0,
    3,
    1,
    0,
    2,
    0,
    0
  ],
  "content_type": [
    0,
    0,
    0,
    2,
    2,
    2,
    2,
    1,
    1,
    1,
    0,
    0,
    0,
    0,
    0,
    0,
    0,
    0,
    0,
    0,
    0,
    0,
    0,
    0
  ],
  "seq_inst_dexed": [
    0,
    0,
    0,
    1,
    0,
    1,
    0,
    0
  ],
  "seq_name": [
    66,
    108,
    105,
    110,
    100,
    105,
    110,
    103,
    68,
    88,
    0,
    0,
    0,
    0,
    0,
    0,
    0,
    0,
    0,
    0,
    0,
    0,
    0
  ]
}